<?xml version="1.0" encoding="utf-8"?>
<!-- Generator: Adobe Illustrator 19.0.0, SVG Export Plug-In . SVG Version: 6.00 Build 0)  -->
<svg version="1.1" id="Layer_1" xmlns="http://www.w3.org/2000/svg" xmlns:xlink="http://www.w3.org/1999/xlink" x="0px" y="0px"
	 viewBox="0 0 960 560" style="enable-background:new 0 0 960 560;" xml:space="preserve">
<style type="text/css">
	.st0{fill:none;}
	.st1{fill:none;stroke:#2296BC;stroke-width:10;stroke-linecap:round;stroke-linejoin:round;stroke-miterlimit:10;}
	.st2{fill:none;stroke:#2296BC;stroke-width:10;stroke-linejoin:round;stroke-miterlimit:10;}
</style>
<circle class="st0" cx="487.2" cy="284.1" r="225.3"/>
<path class="st1" d="M400.2,149.1h68.7h48.8c0.7,0,1.5,0,2.2,0.1c74.5,2.4,71.8,75,71.8,75s5,66.7-89.2,70.1l91.9,130.5l-91.9-130.5
	L400.2,149.1v275.7"/>
<circle class="st2" cx="487" cy="283.9" r="241.1"/>
<g>
</g>
<g>
</g>
<g>
</g>
<g>
</g>
<g>
</g>
<g>
</g>
<g>
</g>
<g>
</g>
<g>
</g>
<g>
</g>
<g>
</g>
<g>
</g>
<g>
</g>
<g>
</g>
<g>
</g>
</svg>
